%YAML 1.1
%TAG !u! tag:unity3d.com,2011:
--- !u!114 &11400000
MonoBehaviour:
  m_ObjectHideFlags: 0
  m_CorrespondingSourceObject: {fileID: 0}
  m_PrefabInstance: {fileID: 0}
  m_PrefabAsset: {fileID: 0}
  m_GameObject: {fileID: 0}
  m_Enabled: 1
  m_EditorHideFlags: 0
  m_Script: {fileID: 11500000, guid: 5ca9e4a784067fb4fac19d37ef934f4f, type: 3}
  m_Name: MonkeyArtifact
  m_EditorClassIdentifier: 
  _artifactName: Monkey
  _artifactSprite: {fileID: 21300000, guid: cf4f71b88b1bc48418bf863393110bb2, type: 3}
  abilityVFX: {fileID: 5417648931358593656, guid: 538dec839c8190042adbd3b4e5e0e3e9,
    type: 3}
  _manaCost: 0
  healthRegPerSecond: 5
  manaRegPerSecond: 10
