%YAML 1.1
%TAG !u! tag:unity3d.com,2011:
--- !u!114 &11400000
MonoBehaviour:
  m_ObjectHideFlags: 0
  m_CorrespondingSourceObject: {fileID: 0}
  m_PrefabInstance: {fileID: 0}
  m_PrefabAsset: {fileID: 0}
  m_GameObject: {fileID: 0}
  m_Enabled: 1
  m_EditorHideFlags: 0
  m_Script: {fileID: 11500000, guid: 40ba7437ac2ceb64c984ebad2b2f06a7, type: 3}
  m_Name: Wind Rage
  m_EditorClassIdentifier: 
  _spellName: Wind Rage
  SpellVFX: {fileID: 575054939714809658, guid: 55fd47c8000e66f4d9c5eaff663d04e5, type: 3}
  OnDeathCastIstant: 1
  BossCastReduction: 0.4
