%YAML 1.1
%TAG !u! tag:unity3d.com,2011:
--- !u!1 &4279357176174484986
GameObject:
  m_ObjectHideFlags: 0
  m_CorrespondingSourceObject: {fileID: 0}
  m_PrefabInstance: {fileID: 0}
  m_PrefabAsset: {fileID: 0}
  serializedVersion: 6
  m_Component:
  - component: {fileID: 952526118147125225}
  - component: {fileID: 8098329518122456543}
  - component: {fileID: 2548899544086882598}
  m_Layer: 0
  m_Name: SM_Props_aa_LP
  m_TagString: Untagged
  m_Icon: {fileID: 0}
  m_NavMeshLayer: 0
  m_StaticEditorFlags: 0
  m_IsActive: 1
--- !u!4 &952526118147125225
Transform:
  m_ObjectHideFlags: 0
  m_CorrespondingSourceObject: {fileID: 0}
  m_PrefabInstance: {fileID: 0}
  m_PrefabAsset: {fileID: 0}
  m_GameObject: {fileID: 4279357176174484986}
  m_LocalRotation: {x: 0, y: -0, z: -0, w: 1}
  m_LocalPosition: {x: -68.32418, y: 1.8699019, z: -2.0272849}
  m_LocalScale: {x: 0.106455624, y: 0.042008206, z: 0.106455624}
  m_Children:
  - {fileID: 4411867258199793615}
  m_Father: {fileID: 0}
  m_RootOrder: 0
  m_LocalEulerAnglesHint: {x: 0, y: 0, z: 0}
--- !u!33 &8098329518122456543
MeshFilter:
  m_ObjectHideFlags: 0
  m_CorrespondingSourceObject: {fileID: 0}
  m_PrefabInstance: {fileID: 0}
  m_PrefabAsset: {fileID: 0}
  m_GameObject: {fileID: 4279357176174484986}
  m_Mesh: {fileID: -8496831747136547823, guid: c6b43bcd20e201a498ec83ea99c78bbc, type: 3}
--- !u!23 &2548899544086882598
MeshRenderer:
  m_ObjectHideFlags: 0
  m_CorrespondingSourceObject: {fileID: 0}
  m_PrefabInstance: {fileID: 0}
  m_PrefabAsset: {fileID: 0}
  m_GameObject: {fileID: 4279357176174484986}
  m_Enabled: 1
  m_CastShadows: 1
  m_ReceiveShadows: 1
  m_DynamicOccludee: 1
  m_MotionVectors: 1
  m_LightProbeUsage: 1
  m_ReflectionProbeUsage: 1
  m_RenderingLayerMask: 1
  m_RendererPriority: 0
  m_Materials:
  - {fileID: 2100000, guid: a4beb7d84952cc345bc306bca25c1a29, type: 2}
  m_StaticBatchInfo:
    firstSubMesh: 0
    subMeshCount: 0
  m_StaticBatchRoot: {fileID: 0}
  m_ProbeAnchor: {fileID: 0}
  m_LightProbeVolumeOverride: {fileID: 0}
  m_ScaleInLightmap: 1
  m_ReceiveGI: 1
  m_PreserveUVs: 0
  m_IgnoreNormalsForChartDetection: 0
  m_ImportantGI: 0
  m_StitchLightmapSeams: 1
  m_SelectedEditorRenderState: 3
  m_MinimumChartSize: 4
  m_AutoUVMaxDistance: 0.5
  m_AutoUVMaxAngle: 89
  m_LightmapParameters: {fileID: 0}
  m_SortingLayerID: 0
  m_SortingLayer: 0
  m_SortingOrder: 0
--- !u!1001 &3419871759555795323
PrefabInstance:
  m_ObjectHideFlags: 0
  serializedVersion: 2
  m_Modification:
    m_TransformParent: {fileID: 952526118147125225}
    m_Modifications:
    - target: {fileID: 5547926588501010489, guid: 09623d71dd5136c4e976c5186ea78025,
        type: 3}
      propertyPath: m_Name
      value: PB_Point_flame
      objectReference: {fileID: 0}
    - target: {fileID: 1319496260148414132, guid: 09623d71dd5136c4e976c5186ea78025,
        type: 3}
      propertyPath: m_LocalPosition.x
      value: 0
      objectReference: {fileID: 0}
    - target: {fileID: 1319496260148414132, guid: 09623d71dd5136c4e976c5186ea78025,
        type: 3}
      propertyPath: m_LocalPosition.y
      value: 26.49
      objectReference: {fileID: 0}
    - target: {fileID: 1319496260148414132, guid: 09623d71dd5136c4e976c5186ea78025,
        type: 3}
      propertyPath: m_LocalPosition.z
      value: 0
      objectReference: {fileID: 0}
    - target: {fileID: 1319496260148414132, guid: 09623d71dd5136c4e976c5186ea78025,
        type: 3}
      propertyPath: m_LocalRotation.x
      value: 0
      objectReference: {fileID: 0}
    - target: {fileID: 1319496260148414132, guid: 09623d71dd5136c4e976c5186ea78025,
        type: 3}
      propertyPath: m_LocalRotation.y
      value: 0
      objectReference: {fileID: 0}
    - target: {fileID: 1319496260148414132, guid: 09623d71dd5136c4e976c5186ea78025,
        type: 3}
      propertyPath: m_LocalRotation.z
      value: 0
      objectReference: {fileID: 0}
    - target: {fileID: 1319496260148414132, guid: 09623d71dd5136c4e976c5186ea78025,
        type: 3}
      propertyPath: m_LocalRotation.w
      value: 1
      objectReference: {fileID: 0}
    - target: {fileID: 1319496260148414132, guid: 09623d71dd5136c4e976c5186ea78025,
        type: 3}
      propertyPath: m_RootOrder
      value: 0
      objectReference: {fileID: 0}
    - target: {fileID: 1319496260148414132, guid: 09623d71dd5136c4e976c5186ea78025,
        type: 3}
      propertyPath: m_LocalEulerAnglesHint.x
      value: 0
      objectReference: {fileID: 0}
    - target: {fileID: 1319496260148414132, guid: 09623d71dd5136c4e976c5186ea78025,
        type: 3}
      propertyPath: m_LocalEulerAnglesHint.y
      value: 0
      objectReference: {fileID: 0}
    - target: {fileID: 1319496260148414132, guid: 09623d71dd5136c4e976c5186ea78025,
        type: 3}
      propertyPath: m_LocalEulerAnglesHint.z
      value: 0
      objectReference: {fileID: 0}
    - target: {fileID: 1319496260148414132, guid: 09623d71dd5136c4e976c5186ea78025,
        type: 3}
      propertyPath: m_LocalScale.x
      value: 1
      objectReference: {fileID: 0}
    - target: {fileID: 1319496260148414132, guid: 09623d71dd5136c4e976c5186ea78025,
        type: 3}
      propertyPath: m_LocalScale.y
      value: 1
      objectReference: {fileID: 0}
    - target: {fileID: 1319496260148414132, guid: 09623d71dd5136c4e976c5186ea78025,
        type: 3}
      propertyPath: m_LocalScale.z
      value: 1
      objectReference: {fileID: 0}
    - target: {fileID: 3821261370097495209, guid: 09623d71dd5136c4e976c5186ea78025,
        type: 3}
      propertyPath: m_LocalPosition.y
      value: -2.28
      objectReference: {fileID: 0}
    m_RemovedComponents: []
  m_SourcePrefab: {fileID: 100100000, guid: 09623d71dd5136c4e976c5186ea78025, type: 3}
--- !u!4 &4411867258199793615 stripped
Transform:
  m_CorrespondingSourceObject: {fileID: 1319496260148414132, guid: 09623d71dd5136c4e976c5186ea78025,
    type: 3}
  m_PrefabInstance: {fileID: 3419871759555795323}
  m_PrefabAsset: {fileID: 0}
