%YAML 1.1
%TAG !u! tag:unity3d.com,2011:
--- !u!1001 &1848571588135647023
PrefabInstance:
  m_ObjectHideFlags: 0
  serializedVersion: 2
  m_Modification:
    m_TransformParent: {fileID: 0}
    m_Modifications:
    - target: {fileID: -927199367670048503, guid: e7e4d8c523d3cd646a1c8496b0ccd9a2,
        type: 3}
      propertyPath: m_Name
      value: SM_Spicchio_VFX Variant
      objectReference: {fileID: 0}
    - target: {fileID: -4216859302048453862, guid: e7e4d8c523d3cd646a1c8496b0ccd9a2,
        type: 3}
      propertyPath: m_LocalPosition.x
      value: -0
      objectReference: {fileID: 0}
    - target: {fileID: -4216859302048453862, guid: e7e4d8c523d3cd646a1c8496b0ccd9a2,
        type: 3}
      propertyPath: m_LocalPosition.y
      value: 0
      objectReference: {fileID: 0}
    - target: {fileID: -4216859302048453862, guid: e7e4d8c523d3cd646a1c8496b0ccd9a2,
        type: 3}
      propertyPath: m_LocalPosition.z
      value: 0.2
      objectReference: {fileID: 0}
    - target: {fileID: -4216859302048453862, guid: e7e4d8c523d3cd646a1c8496b0ccd9a2,
        type: 3}
      propertyPath: m_LocalRotation.x
      value: 0
      objectReference: {fileID: 0}
    - target: {fileID: -4216859302048453862, guid: e7e4d8c523d3cd646a1c8496b0ccd9a2,
        type: 3}
      propertyPath: m_LocalRotation.y
      value: 0
      objectReference: {fileID: 0}
    - target: {fileID: -4216859302048453862, guid: e7e4d8c523d3cd646a1c8496b0ccd9a2,
        type: 3}
      propertyPath: m_LocalRotation.z
      value: 0
      objectReference: {fileID: 0}
    - target: {fileID: -4216859302048453862, guid: e7e4d8c523d3cd646a1c8496b0ccd9a2,
        type: 3}
      propertyPath: m_LocalRotation.w
      value: 1
      objectReference: {fileID: 0}
    - target: {fileID: -4216859302048453862, guid: e7e4d8c523d3cd646a1c8496b0ccd9a2,
        type: 3}
      propertyPath: m_RootOrder
      value: 0
      objectReference: {fileID: 0}
    - target: {fileID: -4216859302048453862, guid: e7e4d8c523d3cd646a1c8496b0ccd9a2,
        type: 3}
      propertyPath: m_LocalEulerAnglesHint.x
      value: 0
      objectReference: {fileID: 0}
    - target: {fileID: -4216859302048453862, guid: e7e4d8c523d3cd646a1c8496b0ccd9a2,
        type: 3}
      propertyPath: m_LocalEulerAnglesHint.y
      value: 0
      objectReference: {fileID: 0}
    - target: {fileID: -4216859302048453862, guid: e7e4d8c523d3cd646a1c8496b0ccd9a2,
        type: 3}
      propertyPath: m_LocalEulerAnglesHint.z
      value: 0
      objectReference: {fileID: 0}
    - target: {fileID: -4216859302048453862, guid: e7e4d8c523d3cd646a1c8496b0ccd9a2,
        type: 3}
      propertyPath: m_LocalScale.x
      value: 0.08
      objectReference: {fileID: 0}
    - target: {fileID: -4216859302048453862, guid: e7e4d8c523d3cd646a1c8496b0ccd9a2,
        type: 3}
      propertyPath: m_LocalScale.y
      value: 0.08
      objectReference: {fileID: 0}
    - target: {fileID: -4216859302048453862, guid: e7e4d8c523d3cd646a1c8496b0ccd9a2,
        type: 3}
      propertyPath: m_LocalScale.z
      value: 0.08
      objectReference: {fileID: 0}
    - target: {fileID: -1504981713932161579, guid: e7e4d8c523d3cd646a1c8496b0ccd9a2,
        type: 3}
      propertyPath: m_Materials.Array.data[0]
      value: 
      objectReference: {fileID: 2100000, guid: 00d47fbc7ec4ec646896bc093023e9e9, type: 2}
    m_RemovedComponents: []
  m_SourcePrefab: {fileID: 100100000, guid: e7e4d8c523d3cd646a1c8496b0ccd9a2, type: 3}
